{
  "development": {
    "username": "root",
    "password": "mysql",
    "database": "books",
    "host": "localhost",
    "dialect": "mysql"
  },
  "test": {
    "username": "root",
    "password": "mysql",
    "database": "books",
    "host": "localhost",
    "dialect": "mysql"
  },
  "production": {
    "username": "root",
    "password": "mysql",
    "database": "books",
    "host": "localhost",
    "dialect": "mysql"
  }
}
